<svg xmlns="http://www.w3.org/2000/svg" viewBox="0 0 350.56 350.56">
	<defs>
		<style>
			.cls-1{fill:#24abc5;}.cls-2,.cls-4{fill:#fff;}.cls-3{fill:none;}.cls-3,.cls-4{stroke:#fff;stroke-miterlimit:164;stroke-width:3px;}
		</style>
	</defs>
	<g id="Capa_2" data-name="Capa 2">
		<g id="Capa_1-2" data-name="Capa 1">
			<rect class="cls-1" width="350.56" height="350.56" rx="125.98"/>
			<polygon class="cls-2" points="178.44 219.06 140.74 284.37 216.15 284.37 178.44 219.06"/>
			<rect class="cls-2" x="21.11" y="204.75" width="314.67" height="14.92"/>
			<rect class="cls-2" x="62.47" y="134.57" width="13.31" height="70.18"/>
			<circle class="cls-2" cx="69.13" cy="120.65" r="24.81"/>
			<circle class="cls-3" cx="69.73" cy="121.25" r="44.17"/>
			<circle class="cls-3" cx="69.13" cy="120.65" r="54.45"/>
			<polygon class="cls-4" points="335.89 165.21 323.97 165.21 323.97 205.15 264.68 205.15 264.68 165.21 252.74 165.21 264.68 149.59 267.53 145.85 294.32 110.76 312 133.92 312 122.86 320.47 122.86 320.47 142.22 318.34 142.22 321.11 145.85 323.97 149.6 335.89 165.21"/>
		</g>
	</g>
</svg>