<?xml version="1.0" encoding="utf-8"?>
<!-- Generator: Adobe Illustrator 19.0.0, SVG Export Plug-In . SVG Version: 6.00 Build 0)  -->
<svg version="1.1" id="imalogotipo-N" xmlns="http://www.w3.org/2000/svg" xmlns:xlink="http://www.w3.org/1999/xlink" x="0px"
	 y="0px" viewBox="-194 202.5 569.8 156.5" style="enable-background:new -194 202.5 569.8 156.5;" xml:space="preserve">
<style type="text/css">
	.st0{fill:#010101;}
	.st1{fill:#26A9BE;}
	.st2{fill:#BDBCBC;}
</style>
<symbol  id="Nuevo_símbolo_2" viewBox="-121.9 -23 243.9 46">
	<path class="st0" d="M-102.7-17.3l-2.2,9c-0.2,0.8-0.1,1.6,0.3,2.3l8.3,16.9c0.3,0.5,0.9,0.9,1.5,1.1h3.7c0.9,0,2.4-0.6,2.4-1.5
		v0.1c0.1-0.8,0-1.7-0.3-2.5l-11.8-25.7c-0.3-0.5-0.9-0.7-1.4-0.5C-102.4-17.8-102.6-17.6-102.7-17.3z M-91.4-0.1
		c0.8,1.8,2.3,5.4,3.2,7c0.1,0.2,0.4,0.3,0.7,0.2c0.1,0,0.2-0.1,0.2-0.2l6.7-13.7c0.2-0.5,0.8-0.7,1.3-0.5c0.3,0.1,0.5,0.4,0.6,0.7
		l6.7,27.6c0,0.4,0.3,1,0.8,1h7c0.5,0,0.7-0.6,0.5-1.1l-10.7-43.1c0-0.4-0.3-0.8-0.8-0.8h-6.1c-0.4,0-0.7,0.2-0.8,0.6l-9.2,20.2
		C-91.7-1.5-91.7-0.8-91.4-0.1z M-102.7-22.3c-0.7-0.4-1.4-0.7-2.2-0.7h-5.5c-0.4,0-0.7,0.2-0.7,0.6c0,0,0,0,0,0.1l-10.8,43.2
		c-0.1,0.5,0.1,1.1,0.6,1.1h7c0.4,0,0.7-0.4,0.8-0.8l10.7-42.7C-102.8-21.8-102.8-22-102.7-22.3L-102.7-22.3z"/>
	<path class="st0" d="M-33,6h-11.4c-0.5,0-1-0.4-1-0.9c0-0.1,0-0.3,0.1-0.4l5.9-14.6c0.3-0.5,0.3-1,0.1-1.5l-2.9-7.1
		c-0.2-0.5-0.8-0.8-1.3-0.5c-0.2,0.1-0.4,0.3-0.5,0.5L-61,20.8c-0.2,0.5,0,1.2,0.5,1.2h7.2c0.4,0,0.7-0.3,0.8-0.7l3.5-8.7
		c0.1-0.4,0.5-0.7,0.9-0.7h16.7c0.5,0,1-0.4,1-0.9c0-0.1,0-0.3-0.1-0.4l-1.6-4C-32.2,6.3-32.6,6-33,6z M-41.8-20.8
		c0.1,0.1,17.2,42.6,17.2,42.6c0.1,0.4,0.4,1.2,0.8,1.2h7.4c0.6,0,0.8-1.1,0.6-1.7l-18.6-42.8c-0.1-0.3-0.4-0.5-0.8-0.5h-5.6
		c-0.6,0-1,0.5-1,1C-41.8-20.9-41.8-20.9-41.8-20.8z"/>
	<path class="st0" d="M-2.7,21.2v-43c-0.1-0.6-0.6-1.1-1.2-1.2h-5c-0.6,0-0.8,0.6-0.8,1.2v43c0,0.6,0.2,0.8,0.8,0.8h5
		C-3.4,22-2.7,21.7-2.7,21.2z M23.8,20.8L11.3,3.5C11.1,3.2,10.8,3,10.5,3H3.8c-0.6,0-1,0.5-1,1.1c0,0.2,0.1,0.4,0.2,0.5l11.8,16.9
		c0.2,0.3,0.5,0.4,0.8,0.4h7.8c0.3,0,0.4-0.3,0.6-0.5C24,21.3,24,21,23.8,20.8z M20.1-1.5c0.5-0.5,1-1.1,1.3-1.7
		c1.1-2.4,1.3-4.3,1.3-7.5c0.1-3.4-1.2-6.6-3.6-9c-2.4-2.2-5.7-3.3-9.9-3.3H0.1c-0.6,0-0.8,0.6-0.8,1.2v5c0,0.6,0.2,0.8,0.8,0.8H8
		c1.7-0.1,3.4,0.4,4.8,1.4c1.2,1.1,1.8,2.7,1.7,4.3c0.1,1.7-0.5,3.3-1.7,4.5C11.5-4.6,9.7-4,8-4H0.1c-0.6,0-0.8,0.6-0.8,1.2v3
		c0,0.5,0.3,0.9,0.8,1c0,0,0.1,0,0.1,0c0,0,9.1,0,12.2,0c1.4-0.1,2.9-0.4,4.3-0.7C17.9,0.1,19.1-0.6,20.1-1.5z"/>
	<path class="st0" d="M58.3-6H41.8c-0.9,0.1-1.6,1-1.5,1.9v3.6c-0.1,0.8,0.5,1.5,1.3,1.5c0.1,0,0.2,0,0.2,0h15.6
		c0.9,0,1.9-0.6,1.9-1.5v-4.2C59.3-5.3,58.8-6,58.3-6z M40.3-21v4.4c-0.1,0.8,0.5,1.5,1.3,1.6c0.1,0,0.2,0,0.3,0h20.8
		c1.3,0.1,2.5-0.9,2.6-2.3v-3.1c-0.1-1.4-1.2-2.5-2.6-2.6H41.8C40.9-22.9,40.2-22,40.3-21C40.3-21,40.3-21,40.3-21z M75.3-21.9
		c0-0.6-0.4-1-1-1h-6c-0.6,0-1,0.4-1,1v6c0,0.6,0.4,1,1,1h6c0.6,0,1-0.4,1-1V-21.9z M31.9-23c-1,0.1-1.8,1-1.7,2v42.3
		c0,0.5,0.3,0.9,1.5,0.9l6-0.1c0.5,0,0.5-1,0.5-1.5v-41.6c-0.1-1.1-1-1.9-2.1-2L31.9-23z"/>
	<path class="st0" d="M75.3-22c0-0.6-0.4-1-1-1h-6c-0.6,0-1,0.4-1,1v42c0,0.6,0.4,1,1,1h6c0.6,0,1-0.4,1-1V-22z"/>
	<path class="st0" d="M97,1.6c-0.3-0.5-0.9-0.6-1.4-0.2c-0.1,0.1-0.2,0.2-0.2,0.2L82.2,20.4C82,20.7,82,21,82.1,21.4
		c0.1,0.2,0.3,0.6,0.6,0.6h7.2c0.3,0,0.6-0.5,0.8-0.8l9.7-13.9c0.1-0.2,0.1-0.6,0-0.8L97,1.6z M121.7,19.6L92.2-22.5
		c-0.2-0.3-0.5-0.4-0.8-0.4c0,0-3.5,0-5.7,0c-2.7,0.1-3,1.5-1.6,3.5l28.4,41.2c0.3,0.3,0.6,0.4,1,0.4l7.3-0.8c0.6-0.1,1.1-0.7,1-1.4
		C121.8,19.9,121.7,19.7,121.7,19.6L121.7,19.6z M104.4-7.7l3.1,4.5c0.3,0.5,0.9,0.6,1.4,0.3c0.1-0.1,0.2-0.2,0.3-0.3l12.6-18.4
		c0.3-0.6,0.1-1.5-0.6-1.5h-4.9c-2.4,0-2.3,0.1-2.9,1l-9,13.3C104.2-8.4,104.2-8,104.4-7.7L104.4-7.7z"/>
</symbol>
<use xlink:href="#Nuevo_símbolo_2"  width="243.9" height="46" x="-121.9" y="-23" transform="matrix(1.6598 0 0 1.6598 161.1223 292.1502)" style="overflow:visible;"/>
<path class="st1" d="M-88.6,261.7c0,5.9-1.7,11.6-4.8,16.6l0,0l0,0c-0.4,0.3-0.7,0.6-1.1,1c-0.4,0.4-1,0.8-1.5,1.3l-0.5,0.4
	c-0.5,0.4-1,0.8-1.5,1.1c-0.5,0.4-0.7,0.5-1.1,0.8c3.6-8,3.6-17.2,0.1-25.3c0.9-1.4,1.8-2.8,2.6-4.3c0.3-0.5,0.5-1,0.7-1.4
	c0.2-0.5,0.4-0.8,0.6-1.3c0.1-0.3,0.2-0.5,0.3-0.8c0.3-0.7,0.6-1.4,0.8-2.2c0.1-0.3,0.2-0.5,0.3-0.8c0.1-0.3,0.3-0.8,0.4-1.3
	C-90.2,250.3-88.6,256-88.6,261.7z"/>
<path class="st1" d="M-168.6,282.9c-0.4-0.3-0.7-0.5-1.1-0.8l-0.2-0.1c-0.2-0.1-0.3-0.3-0.5-0.4c-0.3-0.2-0.5-0.4-0.8-0.6l-0.5-0.4
	c-0.5-0.4-1-0.8-1.5-1.3l-1.1-1l0,0l0,0c-6.3-10-6.4-22.8-0.2-32.9c0.1,0.4,0.3,0.8,0.4,1.3c0.1,0.4,0.2,0.6,0.3,0.8l0,0
	c0.3,0.7,0.5,1.4,0.8,2.1l0,0c0.1,0.3,0.2,0.6,0.3,0.8l0,0c0.2,0.4,0.4,0.8,0.6,1.2c0.2,0.4,0.5,1,0.7,1.4c0.2,0.4,0.5,1,0.8,1.5
	c0,0,0,0.1,0.1,0.1c0.3,0.4,0.5,0.9,0.8,1.3c0.3,0.4,0.6,1,0.9,1.4c-3.6,8.1-3.5,17.3,0.1,25.4L-168.6,282.9z"/>
<path class="st2" d="M-100.2,272.7c0,4.4-0.9,8.8-2.8,12.8c-0.5,0.3-1.1,0.6-1.6,0.9c-0.3,0.2-0.5,0.3-0.8,0.5l0,0
	c-0.6,0.3-1.1,0.6-1.6,0.9s-1.3,0.7-2,1c-0.4,0.2-0.8,0.3-1.1,0.5c-0.1,0-0.1,0.1-0.2,0.1c-0.2,0.1-0.5,0.2-0.7,0.3l-0.6,0.2l0,0
	l-0.3,0.1c-0.5,0.2-1,0.4-1.6,0.6c-0.4,0.1-0.7,0.3-1.1,0.4l-1.2,0.4l-1.4,0.4c-1.2,0.3-2.4,0.7-3.7,0.9l0,0l-0.3,0.1l-0.3,0.1h-0.1
	c-0.3,0.1-0.5,0.1-0.8,0.1c0,0-0.1,0-0.1,0l-1.8,0.3c-0.6,0.1-1.2,0.2-1.8,0.3c-1.3,0.2-2.5,0.3-3.8,0.4h-0.2
	c-1.3,0.1-2.6,0.1-3.9,0.1s-2.6,0-3.9-0.1h-0.1l-1.6-0.1l-0.6,0c-0.5,0-1.1-0.1-1.6-0.2c-1.2-0.2-2.4-0.4-3.6-0.6
	c-0.1,0-0.2,0-0.3-0.1l-0.6-0.1c-0.2,0-0.5-0.1-0.7-0.2c-1.3-0.3-2.5-0.6-3.7-0.9c-0.5-0.1-0.9-0.3-1.4-0.4l-1.1-0.4
	c-0.4-0.1-0.8-0.3-1.1-0.4c-0.5-0.2-1.1-0.4-1.6-0.6l-0.3-0.1l-0.6-0.3l-0.4-0.1l-0.4-0.2l-0.7-0.3c-0.2-0.1-0.4-0.2-0.7-0.3
	c-0.7-0.3-1.4-0.6-2-1c-0.6-0.4-1.1-0.6-1.7-0.9c-0.3-0.1-0.6-0.3-0.8-0.5l-0.5-0.3l-1.1-0.7c-1.8-4-2.8-8.4-2.8-12.8
	c0-3.8,0.7-7.5,2-11c0.4,0.5,0.8,0.9,1.3,1.4l0.1,0.1l0.2,0.3c0.4,0.4,0.9,0.9,1.3,1.3s0.9,0.9,1.4,1.3c0.3,0.3,0.6,0.5,0.9,0.7
	l0.1,0.1c0.3,0.3,0.6,0.5,1,0.8c0.2,0.1,0.3,0.3,0.5,0.4l0,0c0.1,0.1,0.3,0.2,0.4,0.3c0.1,0.1,0.3,0.2,0.4,0.3l0.4,0.3l0.4,0.3
	c0.4,0.3,0.9,0.6,1.3,0.8l0.1,0c0.2,0.1,0.4,0.2,0.5,0.3c0.4,0.2,0.8,0.5,1.3,0.7c0.1,0,0.1,0.1,0.2,0.1c0.1,0.1,0.1,0.1,0.2,0.1
	c0.5,0.3,1.1,0.6,1.6,0.8c0.6,0.3,1,0.5,1.5,0.7l0,0c0.4,0.1,0.8,0.3,1.1,0.4c0.4,0.1,0.9,0.3,1.3,0.5c0.7,0.2,1.4,0.5,2.1,0.7
	l0.8,0.3h0.1c1.3,0.4,2.7,0.7,4,0.9h0.3l1,0.2l0,0l0.6,0.1l0.6,0.1l0.6,0.1l0.6,0.1c0.5,0,1,0.1,1.5,0.1c0.7,0,1.3,0.1,2,0.1
	s1.3,0,2-0.1s1.3-0.1,2-0.1c0.3,0,0.7-0.1,1.1-0.1c0.4,0,0.8-0.1,1.2-0.2c0.4-0.1,1-0.1,1.4-0.3c0.1,0,0.3,0,0.4-0.1l0.5-0.1
	c0.3-0.1,0.6-0.1,0.9-0.2c0.5-0.1,1-0.2,1.5-0.4c0.3-0.1,0.6-0.1,0.8-0.2h0.2l0.9-0.3l1.1-0.4c0.4-0.1,0.9-0.3,1.3-0.5
	c0.9-0.3,1.8-0.7,2.7-1.1c0.6-0.3,1.1-0.5,1.6-0.8c0.1,0,0.2-0.1,0.2-0.1c0.5-0.3,1-0.5,1.4-0.8l0.6-0.4c0.3-0.2,0.6-0.4,0.9-0.6
	l0.8-0.5c0.2-0.1,0.3-0.2,0.4-0.3c0.1-0.1,0.5-0.4,0.8-0.6l0,0l0.5-0.4c0.1-0.1,0.3-0.2,0.4-0.3l0.4-0.3l0.1-0.1
	c0.3-0.3,0.6-0.5,1-0.8c0.5-0.4,1-0.8,1.4-1.3s0.9-0.9,1.3-1.3c0.1-0.1,0.2-0.2,0.2-0.3c0.5-0.5,0.9-1,1.4-1.5
	C-100.9,265.2-100.2,268.9-100.2,272.7z"/>
<path class="st1" d="M-73.7,233.5c0,0.7,0,1.3,0,2c0,0.2,0,0.5,0,0.7c0,0.5,0,1-0.1,1.4c-0.1,0.4-0.1,1.1-0.1,1.6
	c-0.1,0.8-0.2,1.7-0.3,2.5c-0.1,0.6-0.2,1.1-0.3,1.7s-0.2,1-0.2,1.4c-0.2,1.2-0.5,2.3-0.8,3.4c-0.1,0.4-0.2,0.7-0.3,1.1
	c-0.1,0.3-0.2,0.8-0.3,1.3s-0.3,0.8-0.4,1.3c-0.3,0.8-0.6,1.7-0.8,2.5c-0.3,0.8-0.6,1.5-0.9,2.3c0,0.1-0.1,0.3-0.2,0.4
	c-0.3,0.7-0.6,1.4-0.9,2s-0.6,1.3-0.9,1.9c-0.2,0.4-0.4,0.8-0.6,1.1c-0.8,1.5-1.7,3-2.6,4.4c-0.3,0.5-0.7,1.1-1.1,1.6
	c-0.5,0.7-1,1.4-1.5,2.1s-1,1.3-1.6,2c5.1-10.9,3.4-23.9-4.3-33.1c0.1-0.4,0.1-0.7,0.1-1.1c0-0.3,0.1-0.6,0.1-0.8
	c0.1-0.5,0.1-1,0.1-1.4c0-0.7,0.1-1.4,0.1-2.2L-73.7,233.5z"/>
<path class="st1" d="M-73.7,354.2v1.9h-38.6v-1.9c0-0.3,0-0.7,0-1c16.2-5.5,24.9-23.1,19.4-39.3c-0.8-2.5-2-4.8-3.4-7
	c1.3,1,2.5,2.1,3.7,3.2l1.2,1.1c1.1,1.1,2.3,2.3,3.3,3.5c0.7,0.8,1.4,1.7,2,2.5s1.4,1.8,2,2.8c0.3,0.5,0.6,1,0.9,1.4
	c0.4,0.6,0.8,1.3,1.2,2c0.4,0.7,0.9,1.6,1.4,2.5c0.3,0.5,0.5,1,0.8,1.5c0.3,0.5,0.5,1,0.7,1.5c0.2,0.5,0.5,1.2,0.8,1.8
	c0.1,0.3,0.3,0.7,0.4,1c0.2,0.5,0.4,1.1,0.6,1.6s0.4,0.9,0.5,1.4c0.1,0.3,0.2,0.7,0.3,1s0.2,0.5,0.3,0.8c0.3,0.8,0.5,1.7,0.7,2.5
	c0.2,0.6,0.3,1.2,0.4,1.8c0.2,0.8,0.3,1.7,0.5,2.5c0.1,0.5,0.2,1,0.3,1.5s0.1,0.8,0.2,1.3c0.1,0.4,0.1,0.9,0.2,1.4s0.1,1.2,0.2,1.9
	c0.1,1,0.1,2,0.2,3C-73.7,353.2-73.7,353.7-73.7,354.2z"/>
<path class="st1" d="M-97.6,318.6c0,11.1-6,21.4-15.7,26.9c-0.1-0.6-0.3-1.2-0.4-1.8c-0.1-0.5-0.3-0.9-0.4-1.4
	c-0.1-0.4-0.2-0.7-0.3-1c-0.1-0.3-0.2-0.6-0.3-0.9l-0.2-0.5c-0.2-0.5-0.4-1-0.6-1.4c0-0.1-0.1-0.1-0.1-0.2c-0.1-0.3-0.3-0.7-0.4-1
	l0,0c10.8-9.8,13.4-25.7,6.2-38.4c0.5,0.2,1,0.5,1.6,0.7l1.3,0.6c0.5,0.2,0.9,0.5,1.4,0.7c0.7,0.4,1.3,0.7,1.9,1.1
	c0.6,0.4,1.2,0.7,1.8,1.1c0,0,0.1,0.1,0.2,0.1s0,0,0,0C-99,307.8-97.6,313.2-97.6,318.6z"/>
<path class="st2" d="M-112,308.9c0,7.8-2.9,15.3-8.2,21c-1.3-1.8-2.7-3.5-4.3-5l-0.3-0.3c-0.4-0.4-0.8-0.8-1.3-1.2
	c-0.7-0.6-1.3-1.2-2-1.7c-0.3-0.2-0.6-0.5-0.9-0.7c-0.9-0.7-1.9-1.3-2.8-1.9c-0.3-0.2-0.6-0.4-1-0.6l-1-0.6l0,0l0,0l-1,0.6
	c-0.3,0.2-0.7,0.4-1,0.6c-1,0.6-1.9,1.2-2.8,1.9c-0.3,0.2-0.6,0.5-0.9,0.7c-0.7,0.5-1.4,1.1-2,1.7c-0.5,0.4-0.9,0.8-1.3,1.2
	c-0.1,0.1-0.2,0.2-0.3,0.3c-1.6,1.5-3,3.2-4.3,5c-7.9-8.5-10.3-20.7-6.4-31.6l0.1-0.3c0.1-0.3,0.3-0.7,0.4-1l0,0l1.9-0.6l1.7-0.5
	l0.6-0.2c0.6-0.2,1.2-0.3,1.9-0.5s1.2-0.3,1.9-0.4s1.6-0.3,2.4-0.4c0.5-0.1,1-0.1,1.4-0.2c1.3-0.2,2.5-0.3,3.8-0.4h0.1
	c1.3,0.1,2.6,0.1,3.9,0.1c1.3,0,2.6,0,3.9-0.1h0.1c1.3,0.1,2.6,0.2,3.8,0.4s2.6,0.4,3.8,0.6c0.6,0.1,1.3,0.3,1.9,0.4
	c0.6,0.1,1.2,0.3,1.9,0.5c0.2,0,0.4,0.1,0.6,0.2l1.7,0.5l1.9,0.6l0,0c0.1,0.3,0.3,0.7,0.4,1c0,0.1,0.1,0.2,0.1,0.3
	C-112.7,301.7-112,305.3-112,308.9z"/>
<path class="st1" d="M-193.8,349.6c0-0.6,0.1-1.3,0.2-1.9c0.1-1,0.2-2,0.4-3c0.3-1.7,0.6-3.4,1-5c0.1-0.4,0.2-0.9,0.4-1.4
	s0.3-0.9,0.4-1.4l0.4-1.3l0.3-0.9c0.2-0.5,0.3-1,0.5-1.4c0.1-0.2,0.1-0.4,0.2-0.5c0.1-0.2,0.1-0.4,0.2-0.6c0.1-0.3,0.2-0.5,0.3-0.8
	c0.1-0.3,0.2-0.5,0.3-0.8c0.2-0.6,0.5-1.2,0.8-1.7c0.3-0.6,0.7-1.5,1-2.2c0.3-0.5,0.5-1,0.8-1.4c0.5-1,1.1-1.9,1.6-2.8
	c0.3-0.5,0.6-0.9,0.9-1.4c0.3-0.5,0.6-0.9,0.9-1.4c0.6-0.9,1.3-1.8,1.9-2.6c0.6-0.9,1.3-1.7,2-2.5c0.3-0.4,0.7-0.8,1.1-1.2l1-1.1
	c0.4-0.4,0.8-0.8,1.2-1.2l1.2-1.1c1.2-1.1,2.4-2.2,3.7-3.2c-9.4,14.3-5.3,33.5,9,42.9c2.2,1.4,4.5,2.6,7,3.4c0,0.3,0,0.7,0,1v1.9
	H-194L-193.8,349.6z"/>
<path class="st1" d="M-151.7,337.2L-151.7,337.2c-0.1,0.3-0.3,0.7-0.4,1c0,0,0,0.1,0,0.1c0,0,0,0.1,0,0.1c-0.2,0.5-0.4,0.9-0.6,1.4
	c-0.1,0.2-0.1,0.3-0.2,0.5c-0.1,0.2-0.2,0.6-0.3,0.9c-0.1,0.3-0.2,0.7-0.3,1c-0.1,0.4-0.2,0.7-0.3,1.1c-0.1,0.4-0.2,0.7-0.3,1
	c0,0.1,0,0.1,0,0.2c-0.1,0.3-0.2,0.6-0.2,1c-14.9-8.4-20.2-27.3-11.8-42.2c0-0.1,0.1-0.2,0.1-0.3l0,0h0.1c0,0,0.1,0,0.1-0.1
	c0.6-0.4,1.2-0.8,1.8-1.1c0.6-0.4,1.3-0.8,2-1.1c0.7-0.4,1.4-0.7,2-1c0.6-0.3,1.4-0.7,2.1-1c-7.2,12.7-4.7,28.6,6.1,38.4
	L-151.7,337.2z"/>
<path class="st1" d="M-193.9,237.8c0,0.6,0.1,1.2,0.1,1.8c0.1,0.8,0.2,1.5,0.3,2.3c0.1,0.8,0.2,1.3,0.3,2c0,0,0,0.1,0,0.1
	c0.1,0.6,0.2,1.2,0.3,1.7c0,0.1,0,0.2,0.1,0.2c0.1,0.6,0.2,1.1,0.4,1.7c0.1,0.6,0.3,1.3,0.5,1.9c0.1,0.4,0.2,0.7,0.3,1.1
	c0.3,0.9,0.5,1.8,0.9,2.7c0.1,0.4,0.3,0.8,0.4,1.2c0.3,0.8,0.6,1.5,0.9,2.3l0.1,0.2c0.3,0.7,0.6,1.5,1,2.2c0.4,0.7,0.6,1.3,0.9,1.9
	c0.2,0.4,0.4,0.8,0.6,1.1c0.2,0.4,0.6,1,0.9,1.6c0,0,0,0.1,0.1,0.1c0.3,0.5,0.6,1.1,1,1.6s0.4,0.8,0.7,1.1c0.3,0.5,0.7,1.1,1.1,1.6
	c0.5,0.7,1,1.4,1.5,2.1s1,1.3,1.6,2c-5.1-10.9-3.4-23.8,4.3-33.1c0-0.1,0-0.2,0-0.3c0-0.3-0.1-0.5-0.1-0.7c0-0.3-0.1-0.6-0.1-0.9
	c0-0.3-0.1-0.6-0.1-0.9c0-0.3-0.1-0.9-0.1-1.3c0-0.4,0-0.9,0-1.4h-18L-193.9,237.8z"/>
<path class="st1" d="M-133,202.7h-1.1c-16.8,0.2-30.3,13.8-30.5,30.6c0.1-17,13.8-30.7,30.8-30.7h0.4L-133,202.7z"/>
<path class="st1" d="M-102.9,233.3c-0.2-16.6-13.5-30.1-30.1-30.5h-1.1c-16.8,0.2-30.3,13.8-30.5,30.6v0.6
	c0.2,16.6,13.5,30.1,30.1,30.6h1.1c16.8-0.2,30.3-13.8,30.4-30.6c0-0.1,0-0.2,0-0.2C-102.9,233.5-102.9,233.4-102.9,233.3z
	 M-126.2,251.8c0-0.1,0.1-0.2,0.1-0.3l0.1-0.3c0,0,0,0,0-0.1s0.1-0.2,0.1-0.3l0.1-0.3l0,0c0-0.1,0.1-0.2,0.1-0.3
	c0-0.1,0.1-0.2,0.1-0.3c0,0,0-0.1,0-0.1c0,0,0-0.2,0.1-0.3l0.1-0.3l0,0l0.1-0.3l0,0c0-0.1,0-0.2,0-0.3c0,0,0,0,0-0.1v-0.2
	c0,0,0-0.1,0-0.1c0,0,0-0.1,0-0.2c0-0.1,0-0.2,0-0.3c0-0.1,0-0.1,0-0.2c0-0.1,0-0.1,0-0.2c0-0.1,0-0.1,0-0.1c0,0,0-0.2,0-0.3v-0.1
	c0-0.1,0-0.1,0-0.2c0-0.1,0-0.1,0-0.2c0-0.1,0-0.1,0-0.2V246c0-0.1,0-0.2,0-0.3v-0.3c0-0.1,0-0.2,0-0.3V245c0-0.1,0-0.1,0-0.2v-0.1
	c0-0.1,0-0.2,0-0.3s0,0,0,0s0-0.2,0-0.2c0-0.1,0-0.1,0-0.2c0-0.1,0-0.1,0-0.2v-0.1v-0.3l0,0c0-0.1,0-0.2,0-0.3c0-0.1,0-0.2,0-0.3
	c0,0,0-0.1,0-0.1c0-0.1,0-0.2,0-0.3l-0.1-0.3V242l0-0.4c0-0.1,0-0.2-0.1-0.3l0,0c0-0.1,0-0.2-0.1-0.3s0-0.2-0.1-0.3s0-0.1,0-0.2
	c0-0.1,0-0.1,0-0.2s-0.1-0.4-0.2-0.6c0-0.1,0-0.2-0.1-0.3l0,0c0-0.1-0.1-0.2-0.1-0.3c0-0.1-0.1-0.2-0.1-0.2c0,0,0-0.1,0-0.1
	c0-0.1-0.1-0.2-0.1-0.3c0-0.1-0.1-0.1-0.1-0.2s-0.1-0.1-0.1-0.2c0-0.1-0.1-0.2-0.1-0.3l-0.1-0.3l-0.2-0.3l-0.2-0.4l-0.1-0.2
	c-0.1-0.1-0.1-0.2-0.2-0.3l0,0c0-0.1-0.1-0.2-0.2-0.3l0,0l-0.2-0.3l-0.2-0.3l-0.2-0.4l-0.2-0.3l-0.3-0.4c0-0.1-0.1-0.1-0.1-0.2
	l-0.2-0.3l-0.2-0.3c-0.6-0.8-1.2-1.5-1.9-2.2c-5.4-5.5-13.5-7.4-20.8-4.9c7-6.9,18.3-6.9,25.3,0l0.2,0.2l0.1,0.1
	C-119.5,233.6-119.5,244.7-126.2,251.8z M-113.2,252.5c3.8-11.2,0.9-23.7-7.4-32.1c-8.3-8.3-20.5-11.2-31.6-7.6
	c10.8-10.4,27.9-10.3,38.7,0.2l0.3,0.3l0.1,0.1C-102.6,224.4-102.6,241.7-113.2,252.5z"/>
<path class="st1" d="M-102.9,233.9c-0.1,17-13.8,30.7-30.8,30.7h-0.4l-0.3-0.2h1.1C-116.6,264.2-103.1,250.6-102.9,233.9z"/>
<g>
</g>
<g>
</g>
<g>
</g>
</svg>
