<?xml version="1.0" encoding="utf-8"?>
<!-- Generator: Adobe Illustrator 19.0.0, SVG Export Plug-In . SVG Version: 6.00 Build 0)  -->
<svg version="1.1" id="Capa_1" xmlns="http://www.w3.org/2000/svg" xmlns:xlink="http://www.w3.org/1999/xlink" x="0px" y="0px"
	 viewBox="0 0 110.3 94.8" style="enable-background:new 0 0 110.3 94.8;" xml:space="preserve">
<style type="text/css">
	.st0{fill:#24ABC5;}
	.st1{fill:#FCFEFF;}
</style>
<path id="XMLID_24_" class="st0" d="M105.2,94.8H5c-2.8,0-5-2.2-5-5V5c0-2.8,2.2-5,5-5h100.2c2.8,0,5,2.2,5,5v84.7
	C110.3,92.5,108,94.8,105.2,94.8z"/>
<path id="XMLID_2_" class="st1" d="M92.6,31.3h-75c-3,0-5.4-2.4-5.4-5.4V15.3c0-3,2.4-5.4,5.4-5.4h75c3,0,5.4,2.4,5.4,5.4V26
	C98,28.9,95.6,31.3,92.6,31.3z M84.6,16.6c-2.2,0-4,1.8-4,4s1.8,4,4,4s4-1.8,4-4S86.8,16.6,84.6,16.6z M73.9,16.6c-2.2,0-4,1.8-4,4
	s1.8,4,4,4s4-1.8,4-4S76.1,16.6,73.9,16.6z M92.6,58.1h-75c-3,0-5.4-2.4-5.4-5.4V42c0-3,2.4-5.4,5.4-5.4h75c3,0,5.4,2.4,5.4,5.4
	v10.7C98,55.7,95.6,58.1,92.6,58.1z M84.6,43.4c-2.2,0-4,1.8-4,4s1.8,4,4,4s4-1.8,4-4S86.8,43.4,84.6,43.4z M73.9,43.4
	c-2.2,0-4,1.8-4,4s1.8,4,4,4s4-1.8,4-4S76.1,43.4,73.9,43.4z M92.6,84.9h-75c-3,0-5.4-2.4-5.4-5.4V68.8c0-3,2.4-5.4,5.4-5.4h75
	c3,0,5.4,2.4,5.4,5.4v10.7C98,82.5,95.6,84.9,92.6,84.9z M84.6,70.1c-2.2,0-4,1.8-4,4s1.8,4,4,4s4-1.8,4-4S86.8,70.1,84.6,70.1z
	 M73.9,70.1c-2.2,0-4,1.8-4,4s1.8,4,4,4s4-1.8,4-4S76.1,70.1,73.9,70.1z"/>
</svg>
