<?xml version="1.0" encoding="utf-8"?>
<!-- Generator: Adobe Illustrator 19.0.0, SVG Export Plug-In . SVG Version: 6.00 Build 0)  -->
<svg version="1.1" id="Capa_1" xmlns="http://www.w3.org/2000/svg" xmlns:xlink="http://www.w3.org/1999/xlink" x="0px" y="0px"
	 viewBox="0 0 65.6 65.6" style="enable-background:new 0 0 65.6 65.6;" xml:space="preserve">
<style type="text/css">
	.st0{fill:#24ABC5;}
	.st1{fill:none;stroke:#FFFFFF;stroke-miterlimit:10;}
	.st2{fill:#FFFFFF;stroke:#FFFFFF;stroke-miterlimit:10;}
</style>
<g id="XMLID_92_">
	<path id="XMLID_91_" class="st0" d="M60.6,65.6H5c-2.8,0-5-2.2-5-5V5c0-2.8,2.2-5,5-5h55.6c2.8,0,5,2.2,5,5v55.6
		C65.6,63.4,63.4,65.6,60.6,65.6z"/>
	<g id="XMLID_17_">
		<g id="XMLID_31_">
			<g id="XMLID_48_">
				<g id="XMLID_49_">
					<g id="XMLID_50_">
						<g id="XMLID_51_">
							<path id="XMLID_16_" class="st1" d="M54.8,30.4c0,13.5-10.7,24.4-23.9,24.4c-13.2,0-23.9-10.9-23.9-24.4S17.6,5.9,30.8,5.9
								C44,5.9,54.8,16.9,54.8,30.4z"/>
							<path id="XMLID_52_" class="st2" d="M30.8,55.6c-13.6,0-24.7-11.3-24.7-25.2c0-13.9,11.1-25.2,24.7-25.2
								c13.6,0,24.7,11.3,24.7,25.2C55.5,44.3,44.4,55.6,30.8,55.6z M30.8,6.7C18,6.7,7.6,17.3,7.6,30.4c0,13.1,10.4,23.7,23.2,23.7
								C43.6,54.1,54,43.4,54,30.4C54,17.3,43.6,6.7,30.8,6.7z"/>
						</g>
					</g>
				</g>
			</g>
			<g id="XMLID_44_">
				<path id="XMLID_45_" class="st2" d="M30.8,55.6c-5.3,0-9.5-11.1-9.5-25.2c0-14.2,4.2-25.2,9.5-25.2s9.5,11.1,9.5,25.2
					C40.3,44.5,36.2,55.6,30.8,55.6z M30.8,6.6c-3.9,0-8.1,9.5-8.1,23.7c0,14.2,4.2,23.7,8.1,23.7c3.9,0,8.1-9.5,8.1-23.7
					C38.9,16.2,34.7,6.6,30.8,6.6z"/>
			</g>
			<g id="XMLID_42_">
				<rect id="XMLID_11_" x="30.1" y="5.9" class="st2" width="1.5" height="49"/>
			</g>
			<g id="XMLID_38_">
				<path id="XMLID_39_" class="st2" d="M30.8,43.9c-13.6,0-24.7-6.1-24.7-13.6c0-7.5,11.1-13.6,24.7-13.6
					c13.6,0,24.7,6.1,24.7,13.6C55.5,37.8,44.4,43.9,30.8,43.9z M30.8,18.3C18,18.3,7.6,23.7,7.6,30.4C7.6,37,18,42.4,30.8,42.4
					c12.8,0,23.2-5.4,23.2-12.1C54.1,23.7,43.6,18.3,30.8,18.3z"/>
			</g>
			<g id="XMLID_36_">
				<rect id="XMLID_8_" x="6.8" y="29.6" class="st1" width="48" height="1.5"/>
			</g>
			<g id="XMLID_32_">
				<path id="XMLID_33_" class="st2" d="M30.8,55.6C20.4,55.6,12,44.3,12,30.4c0-13.9,8.4-25.2,18.8-25.2
					c10.4,0,18.8,11.3,18.8,25.2C49.6,44.3,41.2,55.6,30.8,55.6z M30.8,6.6c-9.6,0-17.3,10.6-17.3,23.7c0,13.1,7.8,23.7,17.3,23.7
					c9.6,0,17.3-10.6,17.3-23.7C48.2,17.3,40.4,6.6,30.8,6.6z"/>
			</g>
		</g>
		<g id="XMLID_19_">
			<g id="XMLID_24_">
				<g id="XMLID_25_">
					<g id="XMLID_26_">
						<path id="XMLID_5_" class="st2" d="M34.4,46.4c-1.7-1.7-2-2-2.1-2.1c0,0-0.1-0.1-0.1-0.1c-0.2-0.2-0.6-0.2-0.8,0l-8.3,8.6
							c-0.2,0.2-0.2,0.6,0,0.8c0,0,2.5,3,5,4.6c0.3,0.2,0.6,0.4,0.9,0.5c2.8,1.4,5.9,1.1,8.5,0c3.8-1.6,11.1-9.6,11.1-9.6
							s7.7-7.6,9.2-11.5c1.2-3,1.3-6.6-0.7-9.7c-1.6-2.6-4.6-5.1-4.6-5.1c-0.2-0.2-0.6-0.2-0.8,0l-8.3,8.6c-0.2,0.2-0.2,0.6,0,0.8
							c0,0,0.1,0,0.1,0.1c0,0,0.3,0.4,2.1,2.1c2.2,2.2,3.6,1.8,3.6,1.8c-0.4,1.4-6.2,7.2-6.2,7.2s-5.6,6-6.9,6.4
							C36.2,50.1,36.5,48.6,34.4,46.4z"/>
						<path id="XMLID_27_" class="st2" d="M33.3,60.5c-1.6,0-3.1-0.3-4.5-1c-0.3-0.2-0.7-0.3-1-0.6c-2.6-1.7-5.1-4.7-5.2-4.8
							c-0.2-0.2-0.3-0.5-0.3-0.9c0-0.4,0.1-0.7,0.4-0.9l8.3-8.6c0.5-0.5,1.3-0.5,1.8,0l0.1,0.1c0.4,0.4,1.1,1.1,2.1,2.1
							c1.1,1.2,1.7,2.2,1.9,2.9c1.3-1.1,3.8-3.5,5.8-5.7c2.1-2.1,4.5-4.7,5.5-6c-0.7-0.2-1.7-0.7-2.9-1.9c-1.3-1.3-1.8-1.9-2-2.1
							c0,0-0.1-0.1-0.2-0.1c-0.5-0.5-0.5-1.3,0-1.9l8.3-8.6c0.5-0.5,1.3-0.5,1.8,0c0.1,0.1,3.1,2.6,4.7,5.2c1.9,3,2.2,6.7,0.8,10.4
							c-1.5,4-9,11.4-9.3,11.8c-0.3,0.3-7.5,8.1-11.3,9.7C36.4,60.2,34.9,60.5,33.3,60.5z M23.8,53.2c0.5,0.6,2.7,3,4.8,4.4
							c0.3,0.2,0.6,0.4,0.9,0.5c2.4,1.2,5.2,1.2,8,0c3.6-1.5,10.8-9.3,10.8-9.4c0.1-0.1,7.6-7.6,9-11.2c1.2-3.2,1-6.4-0.6-9
							c-1.4-2.2-3.9-4.4-4.4-4.8l-8,8.3c0,0,0,0,0,0c0,0,0.4,0.4,2,2.1c1.5,1.5,2.6,1.6,2.9,1.6c0,0,0.1,0,0.1,0
							c0.3,0,0.5,0.1,0.7,0.2c0.2,0.2,0.2,0.5,0.2,0.7c-0.4,1.5-5,6.1-6.4,7.5c-1.3,1.4-5.8,6.2-7.2,6.6c-0.2,0.1-0.5,0-0.7-0.2
							c-0.2-0.2-0.3-0.4-0.2-0.7l0,0c0,0,0.1-1.2-1.6-3c-0.7-0.7-1.6-1.6-2-2c0,0,0,0,0,0L23.8,53.2z"/>
					</g>
				</g>
			</g>
			<g id="XMLID_22_">
				<path id="XMLID_2_" class="st2" d="M45.3,34.9c-0.2,0-0.4-0.1-0.5-0.2c-0.3-0.3-0.3-0.8,0-1.1l9-9.6c0.3-0.3,0.7-0.3,1,0
					c0.3,0.3,0.3,0.8,0,1.1l-9,9.6C45.7,34.8,45.5,34.9,45.3,34.9z"/>
			</g>
			<g id="XMLID_20_">
				<path id="XMLID_1_" class="st2" d="M25.1,56.4c-0.2,0-0.4-0.1-0.5-0.2c-0.3-0.3-0.3-0.8,0-1.1l9-9.6c0.3-0.3,0.7-0.3,1,0
					c0.3,0.3,0.3,0.8,0,1.1l-9,9.6C25.5,56.4,25.3,56.4,25.1,56.4z"/>
			</g>
		</g>
	</g>
</g>
</svg>
