<?xml version="1.0" encoding="utf-8"?>
<!-- Generator: Adobe Illustrator 19.0.0, SVG Export Plug-In . SVG Version: 6.00 Build 0)  -->
<svg version="1.1" id="Capa_1" xmlns="http://www.w3.org/2000/svg" xmlns:xlink="http://www.w3.org/1999/xlink" x="0px" y="0px"
	 viewBox="0 0 595.3 841.9" style="enable-background:new 0 0 595.3 841.9;" xml:space="preserve">
<style type="text/css">
	.st0{fill:none;stroke:#FFFFFF;stroke-miterlimit:10;}
</style>
<g id="XMLID_11_">
	<line id="XMLID_19_" class="st0" x1="606.4" y1="12.7" x2="467" y2="152.1"/>
	<line id="XMLID_18_" class="st0" x1="595.2" y1="216.9" x2="455.8" y2="356.3"/>
	<line id="XMLID_17_" class="st0" x1="481.6" y1="432.9" x2="342.2" y2="572.3"/>
	<line id="XMLID_16_" class="st0" x1="320" y1="119.9" x2="180.6" y2="259.3"/>
	<line id="XMLID_15_" class="st0" x1="389.7" y1="259.3" x2="250.3" y2="398.7"/>
	<line id="XMLID_14_" class="st0" x1="228.8" y1="561.9" x2="89.4" y2="701.3"/>
	<line id="XMLID_13_" class="st0" x1="159.1" y1="363.2" x2="19.7" y2="502.6"/>
	<line id="XMLID_12_" class="st0" x1="320" y1="687.1" x2="180.6" y2="826.5"/>
</g>
 
</svg>
