

<svg xmlns="http://www.w3.org/2000/svg" viewBox="0 0 1212.83 789.37">
	<defs>
		<style>
			 
			.cls-1{ 
				stroke:#fff;
				stroke-miterlimit:10;
				stroke-width:4px;
				}
		</style>
	</defs>
	<title>
		Trama Marfix
	</title>
	<g id="Capa_2" data-name="Capa 2">
		<g id="Texto">
			<line class="cls-1" x1="908.99" y1="528.46" x2="840.7" y2="460.17"/>

			<line class="cls-1" x1="142.2" y1="30.92" x2="265.12" y2="153.85"/>
			
			<line class="cls-1" x1="364.63" y1="142.14" x2="517.79" y2="295.3"/>
			
			<line class="cls-1" x1="265.12" y1="295.3" x2="292.92" y2="323.11"/>
			
			<line class="cls-1" x1="1211.41" y1="549.92" x2="1059.23" y2="397.74"/>
			
			<line class="cls-1" x1="982.2" y1="339.2" x2="879.26" y2="236.26"/>
			
			<line class="cls-1" x1="789.97" y1="192.87" x2="707.05" y2="109.95"/>
			
			<line class="cls-1" x1="889.48" y1="696.26" x2="737.29" y2="544.07"/>
			
			<line class="cls-1" x1="727.54" y1="430.9" x2="691.44" y2="394.81"/>
			
			<line class="cls-1" x1="825.09" y1="339.2" x2="786.68" y2="300.79"/>
			
			<line class="cls-1" x1="657.3" y1="218.72" x2="540.47" y2="101.9"/>
			
			<line class="cls-1" x1="786.68" y1="787.96" x2="588.34" y2="589.62"/>
			
			<line class="cls-1" x1="579.25" y1="505.05" x2="472.91" y2="398.71"/>
			
			<line class="cls-1" x1="142.2" y1="160.31" x2="1.41" y2="19.52"/>
			
			<line class="cls-1" x1="441.21" y1="40.68" x2="401.94" y2="1.41"/>
			
			<line class="cls-1" x1="302.19" y1="40.68" x2="264.02" y2="2.51"/>
		</g>
	</g>
</svg>
